Math 3B
…
df_clean <- df %>%
  filter(
    !is.na(delta_calc),
    !is.na(Accuracy),
    !is.na(`#of tutor requests`),
    !is.na(`Pretest Grade`)
  )
nrow(df_clean)

## [1] 258

df_clean

## # A tibble: 258 × 14
##    USERID  `Pretest Grade` `Midterm I Grade` `Midterm II Grade` `Final Grade`
##    <chr>             <dbl>             <dbl>              <dbl>         <dbl>
##  1 4437500          0.0192            NA                 0.0270         0    
##  2 4437521          0.0385             0.2               0.176          0.186
##  3 3972077          0.115              0.569             0.230          0.391
##  4 4437515          0.135              1                 0.730          0.763
##  5 4433828          0.192              0.492             0.405          0.327
##  6 4434040          0.192              0.508             0.568          0.423
##  7 4433887          0.192              0.938             0.608          0.513
##  8 4434527          0.212              0.677             0.649          0.526
##  9 4433904          0.231              0.446             0.176          0    
## 10 4437522          0.231              0.446             0.635          0.455
## # ℹ 248 more rows
## # ℹ 9 more variables: `Delta (pre to final)` <dbl>, `#of tutor requests` <dbl>,
## #   `# of questions correct` <chr>, `# of questions incorrect` <chr>,
## #   `Total Questions Seen` <chr>, Accuracy <dbl>,
## #   `Number of Questions Right at First Try` <chr>, delta_calc <dbl>,
## #   delta_diff <dbl>
…
